tcl/gtkwave-tcl/testbench.vcd
$version Generated by VerilatedVcd $end
$date Sat Oct  2 16:08:38 2021 $end
$timescale 1ps $end

 $scope module TOP $end
  $var wire  1 # clk $end
  $var wire 32 % count [31:0] $end
  $var wire  1 $ reset_l $end
  $scope module top $end
   $var wire  1 # clk $end
   $var wire 32 % count [31:0] $end
   $var wire  1 $ reset_l $end
   $scope module counter $end
    $var wire  1 # clk $end
    $var wire 32 % count [31:0] $end
    $var wire 32 & reg_count [31:0] $end
    $var wire  1 $ reset_l $end
   $upscope $end
  $upscope $end
 $upscope $end
$enddefinitions $end


#1
1#
1$
b00000000000000000000000000000000 %
b00000000000000000000000000000000 &
#2
0#
0$
#3
1#
#4
0#
#5
1#
#6
0#
#7
1#
#8
0#
#9
1#
#10
0#
1$
#11
1#
b00000000000000000000000000000001 %
b00000000000000000000000000000001 &
#12
0#
#13
1#
b00000000000000000000000000000010 %
b00000000000000000000000000000010 &
#14
0#
#15
1#
b00000000000000000000000000000011 %
b00000000000000000000000000000011 &
#16
0#
#17
1#
b00000000000000000000000000000100 %
b00000000000000000000000000000100 &
#18
0#
#19
1#
b00000000000000000000000000000101 %
b00000000000000000000000000000101 &
#20
0#
#21
1#
b00000000000000000000000000000110 %
b00000000000000000000000000000110 &
#22
0#
#23
1#
b00000000000000000000000000000111 %
b00000000000000000000000000000111 &
#24
0#
#25
1#
b00000000000000000000000000001000 %
b00000000000000000000000000001000 &
#26
0#
#27
1#
b00000000000000000000000000001001 %
b00000000000000000000000000001001 &
#28
0#
#29
1#
b00000000000000000000000000001010 %
b00000000000000000000000000001010 &
#30
0#
#31
1#
b00000000000000000000000000001011 %
b00000000000000000000000000001011 &
#32
0#
#33
1#
b00000000000000000000000000001100 %
b00000000000000000000000000001100 &
#34
0#
#35
1#
b00000000000000000000000000001101 %
b00000000000000000000000000001101 &
#36
0#
#37
1#
b00000000000000000000000000001110 %
b00000000000000000000000000001110 &
#38
0#
#39
1#
b00000000000000000000000000001111 %
b00000000000000000000000000001111 &
#40
0#
#41
1#
b00000000000000000000000000010000 %
b00000000000000000000000000010000 &
#42
0#
#43
1#
b00000000000000000000000000010001 %
b00000000000000000000000000010001 &
#44
0#
#45
1#
b00000000000000000000000000010010 %
b00000000000000000000000000010010 &
#46
0#
#47
1#
b00000000000000000000000000010011 %
b00000000000000000000000000010011 &
#48
0#
#49
1#
b00000000000000000000000000010100 %
b00000000000000000000000000010100 &
#50
0#
#51
1#
b00000000000000000000000000010101 %
b00000000000000000000000000010101 &
#52
0#
#53
1#
b00000000000000000000000000010110 %
b00000000000000000000000000010110 &
#54
0#
#55
1#
b00000000000000000000000000010111 %
b00000000000000000000000000010111 &
#56
0#
#57
1#
b00000000000000000000000000011000 %
b00000000000000000000000000011000 &
#58
0#
#59
1#
b00000000000000000000000000011001 %
b00000000000000000000000000011001 &
#60
0#
#61
1#
b00000000000000000000000000011010 %
b00000000000000000000000000011010 &
#62
0#
#63
1#
b00000000000000000000000000011011 %
b00000000000000000000000000011011 &
#64
0#
#65
1#
b00000000000000000000000000011100 %
b00000000000000000000000000011100 &
#66
0#
#67
1#
b00000000000000000000000000011101 %
b00000000000000000000000000011101 &
#68
0#
#69
1#
b00000000000000000000000000011110 %
b00000000000000000000000000011110 &
#70
0#
#71
1#
b00000000000000000000000000011111 %
b00000000000000000000000000011111 &
#72
0#
#73
1#
b00000000000000000000000000100000 %
b00000000000000000000000000100000 &
#74
0#
#75
1#
b00000000000000000000000000100001 %
b00000000000000000000000000100001 &
#76
0#
#77
1#
b00000000000000000000000000100010 %
b00000000000000000000000000100010 &
#78
0#
#79
1#
b00000000000000000000000000100011 %
b00000000000000000000000000100011 &
#80
0#
#81
1#
b00000000000000000000000000100100 %
b00000000000000000000000000100100 &
#82
0#
#83
1#
b00000000000000000000000000100101 %
b00000000000000000000000000100101 &
#84
0#
#85
1#
b00000000000000000000000000100110 %
b00000000000000000000000000100110 &
#86
0#
#87
1#
b00000000000000000000000000100111 %
b00000000000000000000000000100111 &
#88
0#
#89
1#
b00000000000000000000000000101000 %
b00000000000000000000000000101000 &
#90
0#
#91
1#
b00000000000000000000000000101001 %
b00000000000000000000000000101001 &
#92
0#
#93
1#
b00000000000000000000000000101010 %
b00000000000000000000000000101010 &
#94
0#
#95
1#
b00000000000000000000000000101011 %
b00000000000000000000000000101011 &
#96
0#
#97
1#
b00000000000000000000000000101100 %
b00000000000000000000000000101100 &
#98
0#
#99
1#
b00000000000000000000000000101101 %
b00000000000000000000000000101101 &
